final dashboard project
…
final dashboard project

# A tibble: 72 × 22
   name     variation diy   buy    sell color_1 color_2 size  miles_price source
   <chr>    <chr>     <chr> <chr> <dbl> <chr>   <chr>   <chr>       <dbl> <chr> 
 1 3D glas… White     No    490     122 White   Colorf… 1x1            NA Able …
 2 bandage  Beige     No    140      35 Beige   White   1x1            NA Able …
 3 beak     Yellow    No    490     122 Yellow  Yellow  1x1            NA Able …
 4 birthda… Yellow    No    NFS     620 Yellow  Red     1x1            NA Birth…
 5 bottom-… Red       No    1100    275 Red     Red     1x1            NA Able …
 6 browlin… Black     No    1040    260 Black   Yellow  1x1            NA Able …
 7 bubbleg… Pink      No    140      35 Pink    Pink    1x1            NA Able …
 8 bunny n… Pink      No    560     140 Pink    Pink    1x1            NA Able …
 9 butterf… Blue      No    1040    260 Black   Blue    1x1            NA Able …
10 candy-s… Purple    No    NFS     800 White   Purple  1x1            NA Gulli…
# ℹ 62 more rows
# ℹ 12 more variables: source_notes <chr>, seasonal_availability <chr>,
#   mannequin_piece <chr>, version <chr>, style <chr>, label_themes <chr>,
#   type <chr>, villager_equippable <chr>, catalog <chr>, filename <chr>,
#   internal_id <dbl>, unique_entry_id <chr>
…
